0 0.406250 0.474178 0.087500 0.056338
0 0.140625 0.478873 0.062500 0.056338
0 0.623437 0.471831 0.090625 0.051643
0 0.915625 0.467136 0.068750 0.061033
1 0.751563 0.516432 0.421875 0.431925
1 0.300000 0.509390 0.400000 0.417840
