0 0.254688 0.676887 0.028125 0.051887
0 0.440625 0.686321 0.050000 0.051887
0 0.451562 0.740566 0.028125 0.037736
0 0.434375 0.801887 0.018750 0.028302
0 0.235937 0.778302 0.015625 0.028302
1 0.440625 0.674528 0.431250 0.396226
