1 0.507812 0.493750 0.746875 0.862500
0 0.782813 0.431250 0.090625 0.129167
0 0.237500 0.433333 0.100000 0.125000
0 0.206250 0.550000 0.062500 0.083333
0 0.287500 0.735417 0.037500 0.045833
0 0.810937 0.550000 0.059375 0.083333
0 0.732812 0.739583 0.034375 0.045833
