1 0.557813 0.531250 0.884375 0.745833
1 0.256250 0.285417 0.393750 0.220833
0 0.285938 0.410417 0.146875 0.145833
0 0.942187 0.414583 0.115625 0.137500
0 0.328125 0.283333 0.050000 0.041667
0 0.129688 0.260417 0.065625 0.054167
