1 0.410938 0.566667 0.746875 0.600000
1 0.717187 0.387500 0.284375 0.200000
0 0.696875 0.500000 0.100000 0.125000
0 0.140625 0.500000 0.143750 0.133333
0 0.671875 0.385417 0.037500 0.037500
0 0.821875 0.368750 0.043750 0.045833
